<?xml version="1.0" encoding="UTF-8"?>
<!DOCTYPE svg PUBLIC "-//W3C//DTD SVG 1.0//EN" "http://www.w3.org/TR/2001/REC-SVG-20010904/DTD/svg10.dtd">
<!-- Creator: CorelDRAW X7 -->
<svg xmlns="http://www.w3.org/2000/svg" xml:space="preserve" width="20px" height="20px" version="1.0" style="shape-rendering:geometricPrecision; text-rendering:geometricPrecision; image-rendering:optimizeQuality; fill-rule:evenodd; clip-rule:evenodd"
viewBox="0 0 20676 20677"
 xmlns:xlink="http://www.w3.org/1999/xlink">
 <defs>
  <style type="text/css">
   <![CDATA[
    .fil0 {fill:#009EEB}
    .fil1 {fill:white}
   ]]>
  </style>
 </defs>
 <g id="Layer_x0020_1">
  <metadata id="CorelCorpID_0Corel-Layer"/>
  <g id="_1869816033952">
   <path class="fil0" d="M4535 0l11606 0c2495,0 4535,2040 4535,4535l0 11606c0,2495 -2040,4536 -4535,4536l-11606 0c-2495,0 -4535,-2041 -4535,-4536l0 -11606c0,-2495 2040,-4535 4535,-4535z"/>
   <g>
    <path class="fil1" d="M12115 11381c169,508 593,845 1133,1106l1202 -1447c-296,-72 -561,-453 -571,-1007l-60 -3615c-44,-2665 -5558,-3176 -5767,678l1855 -55c-110,-1070 2084,-1640 2033,412 -7515,-115 -3622,8111 175,3928zm-302 -2767l0 0 45 1724c-831,1093 -2386,771 -2248,-200 161,-1046 1014,-1604 2203,-1524z"/>
    <path class="fil1" d="M4113 13531c486,3086 9995,3996 11734,986 -4282,1328 -7915,1083 -11734,-986z"/>
    <path class="fil1" d="M16137 15674l-51 -1294c5,-125 -66,-194 -215,-203l-1282 -89c-295,-63 -321,-214 11,-325l1486 -63 265 0c130,14 199,82 212,196l-71 1782c-103,407 -351,420 -355,-4z"/>
   </g>
  </g>
 </g>
</svg>
