<?xml version="1.0" encoding="UTF-8"?>
<!DOCTYPE svg PUBLIC "-//W3C//DTD SVG 1.0//EN" "http://www.w3.org/TR/2001/REC-SVG-20010904/DTD/svg10.dtd">
<!-- Creator: CorelDRAW X7 -->
<svg xmlns="http://www.w3.org/2000/svg" xml:space="preserve" width="20px" height="20px" version="1.0" style="shape-rendering:geometricPrecision; text-rendering:geometricPrecision; image-rendering:optimizeQuality; fill-rule:evenodd; clip-rule:evenodd"
viewBox="0 0 28825 28825"
 xmlns:xlink="http://www.w3.org/1999/xlink">
 <defs>
  <style type="text/css">
   <![CDATA[
    .fil0 {fill:#009EEB}
    .fil1 {fill:white}
   ]]>
  </style>
 </defs>
 <g id="Layer_x0020_1">
  <metadata id="CorelCorpID_0Corel-Layer"/>
  <g id="_1869815879072">
   <path class="fil0" d="M6324 0l16179 0c3477,0 6322,2845 6322,6322l0 16179c0,3478 -2845,6324 -6322,6324l-16179 0c-3478,0 -6324,-2846 -6324,-6324l0 -16179c0,-3477 2846,-6322 6324,-6322z"/>
   <g>
    <path class="fil1" d="M14413 3381c6093,0 11031,4938 11031,11031 0,6092 -4938,11031 -11031,11031 -6092,0 -11031,-4939 -11031,-11031 0,-6093 4939,-11031 11031,-11031zm-2461 9553l0 0c-368,0 -667,298 -667,666 0,367 299,665 667,665 368,0 665,-298 665,-665 0,-368 -297,-666 -665,-666zm4639 -351l0 0c-327,0 -591,266 -591,591 0,325 264,591 591,591 325,0 590,-266 590,-591 0,-325 -265,-591 -590,-591zm-1001 -1098l0 0c427,-211 897,-190 1399,0 -388,-754 -1364,-452 -1399,0zm-4935 783l0 0c195,-612 766,-808 1508,-720 -705,-626 -1833,2 -1508,720zm6496 12022l0 0c4330,-1198 7512,-5166 7512,-9878 0,-5660 -4590,-10250 -10250,-10250 -5660,0 -10249,4590 -10249,10250 0,4724 3195,8700 7543,9887 -763,-3330 -1475,-6627 -2096,-9874 -606,-3059 380,-4831 3030,-5255 -1008,-255 -2003,65 -2883,-51 47,-265 265,-325 515,-342 560,-70 1083,-223 1551,-502 -560,-189 -1343,-290 -2581,-206 157,-225 312,-448 467,-673 1367,-357 2867,103 4489,1318 471,526 854,640 1229,722 1432,541 2673,3171 2402,5236 415,-112 832,-225 1248,-337 1213,-449 1991,-485 2526,-294 1202,597 -1565,1433 -2285,1709 -1361,582 -2175,650 -3401,398 -407,-63 -306,472 -7,706 785,688 1711,688 4619,309 645,-58 623,607 -109,776 -1920,742 -3248,997 -5674,-281 -109,1062 102,2102 506,3129 154,7 301,61 439,185 541,-272 1014,-686 1551,-933 595,-274 640,116 726,559 0,628 0,1254 0,1881 -29,299 -207,461 -570,371 -482,-158 -965,-315 -1447,-473l1199 1913z"/>
    <path class="fil1" d="M16894 13157c90,0 163,-75 163,-165 0,-90 -73,-165 -163,-165 -92,0 -166,75 -166,165 0,90 74,165 166,165z"/>
    <path class="fil1" d="M12280 13523c92,0 165,-75 165,-165 0,-90 -73,-165 -165,-165 -90,0 -163,75 -163,165 0,90 73,165 163,165z"/>
   </g>
  </g>
 </g>
</svg>
