<?xml version="1.0" encoding="UTF-8"?>
<!DOCTYPE svg PUBLIC "-//W3C//DTD SVG 1.0//EN" "http://www.w3.org/TR/2001/REC-SVG-20010904/DTD/svg10.dtd">
<!-- Creator: CorelDRAW X7 -->
<svg xmlns="http://www.w3.org/2000/svg" xml:space="preserve" width="20px" height="20px" version="1.0" style="shape-rendering:geometricPrecision; text-rendering:geometricPrecision; image-rendering:optimizeQuality; fill-rule:evenodd; clip-rule:evenodd"
viewBox="0 0 20372 20372"
 xmlns:xlink="http://www.w3.org/1999/xlink">
 <defs>
  <font id="FontID0" horiz-adv-x="637" font-variant="normal" style="fill-rule:nonzero" font-weight="400">
	<font-face 
		font-family="Franklin Gothic Heavy">
	</font-face>
   <missing-glyph><path d="M0 0z"/></missing-glyph>
   <glyph unicode="$" horiz-adv-x="586"><path d="M238 652l0 84 94 0 0 -82c105,-12 174,-62 206,-150l-153 -48c-16,41 -48,62 -95,62 -41,0 -61,-13 -61,-39 0,-10 3,-17 10,-24 7,-7 26,-13 57,-20 71,-16 121,-29 152,-41 31,-13 56,-33 77,-63 20,-29 30,-63 30,-103 0,-55 -20,-102 -59,-140 -40,-37 -94,-60 -164,-68l0 -84 -94 0 0 84c-118,14 -192,76 -222,186l171 32c15,-50 51,-75 111,-75 46,0 69,13 69,38 0,13 -5,24 -16,31 -11,8 -30,14 -57,20 -108,22 -176,49 -205,83 -29,34 -43,73 -43,117 0,48 16,91 47,129 32,38 80,61 145,71z"/></glyph>
  </font>
  <style type="text/css">
   <![CDATA[
    @font-face { font-family:"Franklin Gothic Heavy";src:url("#FontID0") format(svg)}
    .fil0 {fill:#696B6B}
    .fil2 {fill:white}
    .fil1 {fill:white;fill-rule:nonzero}
    .fnt0 {font-weight:normal;font-size:9259.11px;font-family:'Franklin Gothic Heavy'}
   ]]>
  </style>
 </defs>
 <g id="Layer_x0020_1">
  <metadata id="CorelCorpID_0Corel-Layer"/>
  <path class="fil0" d="M4470 0l11434 0c2458,0 4468,2010 4468,4468l0 11435c0,2458 -2010,4469 -4468,4469l-11434 0c-2458,0 -4470,-2011 -4470,-4469l0 -11435c0,-2458 2012,-4468 4470,-4468z"/>
  <g id="_1869484770256">
   <g>
    <path class="fil1" d="M10157 15743l37 0 37 0 36 -2 38 0 36 -1 37 -1 36 -1 36 -3 37 -1 37 -2 36 -3 36 -2 37 -2 36 -3 36 -3 36 -4 36 -2 37 -5 36 -4 35 -3 36 -5 36 -5 36 -5 35 -5 36 -5 35 -4 36 -6 35 -6 36 -6 35 -6 35 -6 34 -8 35 -6 35 -7 36 -7 34 -7 35 -8 35 -8 35 -7 35 -9 33 -8 35 -8 35 -9 34 -9 35 -9 33 -10 34 -9 34 -10 35 -9 33 -10 34 -11 34 -11 33 -9 33 -11 33 -11 34 -12 34 -11 32 -12 34 -12 32 -11 33 -13 34 -12 32 -12 33 -13 32 -12 33 -13 32 -14 33 -13 32 -13 31 -15 33 -13 32 -14 32 -15 31 -14 32 -15 32 -14 31 -14 31 -16 31 -16 32 -14 31 -16 31 -17 30 -15 32 -16 30 -17 31 -15 30 -17 30 -17 31 -17 31 -17 30 -18 28 -17 31 -18 30 -18 30 -18 29 -18 30 -18 29 -18 28 -19 29 -18 29 -20 29 -19 29 -19 29 -19 29 -20 27 -19 29 -20 28 -19 29 -21 27 -20 28 -21 28 -20 27 -21 28 -21 28 -21 26 -22 28 -21 26 -21 27 -21 28 -23 26 -22 26 -21 27 -23 26 -22 26 -23 26 -23 25 -23 27 -22 25 -23 25 -23 26 -24 25 -23 25 -24 25 -24 25 -24 25 -24 24 -24 24 -24 25 -24 24 -26 23 -24 24 -25 24 -25 24 -26 23 -25 23 -25 24 -25 23 -26 23 -26 23 -25 21 -27 23 -26 22 -27 23 -26 21 -27 22 -26 22 -27 21 -26 22 -28 22 -26 20 -28 21 -28 21 -27 21 -28 20 -28 21 -27 20 -28 19 -29 21 -28 19 -28 19 -28 19 -29 20 -29 19 -29 19 -29 18 -28 19 -29 19 -29 18 -30 18 -29 18 -30 18 -29 17 -30 18 -30 16 -30 17 -30 18 -30 16 -31 17 -30 17 -30 15 -31 17 -30 16 -31 15 -30 16 -32 15 -31 15 -31 16 -30 14 -32 15 -31 14 -32 15 -32 14 -31 13 -31 15 -33 13 -31 13 -31 13 -33 14 -32 12 -32 13 -32 12 -33 12 -32 12 -32 12 -32 12 -32 11 -33 12 -32 11 -34 11 -32 10 -33 10 -32 11 -33 9 -34 10 -32 11 -32 8 -33 10 -34 10 -32 8 -33 8 -33 9 -33 8 -32 9 -33 7 -33 8 -33 8 -32 7 -34 7 -33 6 -32 7 -33 6 -32 6 -33 6 -31 6 -32 5 -33 6 -32 5 -32 5 -31 5 -31 3 -30 5 -31 4 -32 3 -30 4 -30 3 -30 182 935 -5 44 -5 44 -4 42 -6 42 -6 42 -5 42 -7 41 -6 41 -6 41 -8 41 -6 39 -7 40 -7 40 -7 38 -9 40 -7 39 -8 38 -9 39 -8 37 -9 38 -8 38 -9 37 -9 37 -10 38 -9 37 -10 36 -10 37 -9 36 -11 36 -10 36 -11 37 -10 36 -11 35 -12 36 -11 35 -12 34 -11 35 -12 35 -12 35 -12 35 -13 35 -12 34 -14 34 -12 34 -13 35 -13 34 -13 33 -15 34 -13 33 -14 33 -15 34 -13 32 -16 34 -14 33 -15 32 -15 34 -15 32 -15 33 -16 31 -16 33 -15 32 -16 31 -17 33 -15 31 -17 31 -17 32 -17 31 -17 31 -17 31 -18 32 -16 30 -18 31 -19 30 -18 31 -18 31 -18 30 -19 30 -18 30 -19 30 -18 29 -20 30 -19 29 -20 30 -19 29 -20 28 -20 29 -19 29 -21 29 -20 29 -21 29 -20 28 -22 28 -20 28 -22 28 -20 27 -22 28 -22 28 -21 27 -22 28 -22 27 -23 27 -21 27 -23 27 -23 27 -22 26 -22 27 -25 25 -22 27 -23 26 -24 25 -23 27 -24 25 -24 25 -24 26 -24 25 -24 25 -25 24 -24 25 -25 24 -24 26 -25 24 -25 24 -26 24 -25 24 -25 24 -26 23 -26 24 -25 23 -27 23 -25 23 -26 22 -27 23 -26 23 -27 23 -26 22 -28 22 -26 22 -28 22 -27 21 -27 22 -28 22 -28 20 -27 22 -28 20 -28 21 -27 21 -29 21 -28 19 -29 21 -27 20 -29 19 -29 21 -29 19 -29 19 -29 19 -29 20 -30 18 -29 19 -30 18 -29 18 -30 19 -30 18 -30 18 -30 17 -30 18 -30 17 -30 18 -30 17 -31 17 -31 17 -31 15 -30 17 -31 17 -31 16 -32 15 -31 16 -31 16 -32 15 -31 15 -32 15 -32 15 -31 14 -32 15 -33 14 -31 15 -33 14 -32 13 -33 13 -32 14 -33 14 -32 12 -33 13 -32 14 -34 12 -32 12 -34 12 -32 12 -34 12 -34 12 -33 11 -33 10 -34 13 -33 10 -34 11 -34 10 -35 11 -33 9 -34 10 -35 9 -34 10 -33 10 -35 9 -35 9 -34 8 -35 10 -34 8 -35 7 -35 9 -35 7 -35 9 -35 7 -35 7 -35 7 -35 6 -36 7 -35 6 -36 6 -35 6 -36 6 -35 7 -36 4 -36 5 -35 5 -36 5 -36 5 -36 4 -36 4 -36 5 -36 3 -36 4 -36 2 -36 4 -38 2 -36 4 -36 2 -37 2 -36 2 -38 2 -36 2 -37 1 -36 1 -37 1 -38 1 -36 0 -37 0 -37 0 -26 0 -26 0 -25 0 -27 0 -25 -1 -27 0 -25 -1 -26 0 -26 -1 -25 -1 -26 -2 -26 -1 -25 -1 -26 -1 -26 -3 -25 -1 -26 -1 -26 -2 -25 -3 -26 -1 -26 -2 -25 -3 -25 -2 -25 -3 -26 -2 -26 -2 -25 -4 -26 -2 -25 -4 -25 -2 -25 -4 -26 -4 -25 -3 -25 -3 -25 -3 -26 -5 -25 -4 -25 -3 -24 -4 -26 -5 -25 -3 -25 -5 -25 -5 -24 -4 -26 -4 -25 -5 -25 -5 -24 -5 -26 -6 -25 -5 -24 -4 -25 -6 -24 -5 -26 -6 -24 -5 -25 -6 -24 -6 -25 -6 -24 -6 -24 -6 -26 -6 -24 -7 -24 -6 -25 -6 -24 -8 -24 -6 -24 -7 -24 -7 -24 -7 -26 -8 -24 -7 -24 -7 -24 -7 -24 -7 -24 -8 -24 -8 -23 -7 -24 -9 -24 -7 -24 -8 -24 -9 -23 -8 -24 -9 -24 -8 -24 -8 -23 -9 -24 -8 -23 -10 -24 -8 -23 -9 -24 -9 -23 -10 -24 -8 -23 -10 -22 -10 -25 -9 -22 -10 -23 -10 -23 -9 -23 -11 -23 -10 -24 -9 -23 -11 -23 -11 -22 -10 -22 -10 -23 -11 -23 -11 -23 -11 -23 -11 -22 -11 -22 -10 -23 -11 -23 -11 -21 -12 -23 -11 -22 -12 -23 -12 -21 -11 -23 -12 -22 -12 -22 -12 -22 -12 -22 -12 -22 -12 -21 -12 -22 -12 -22 -13 -21 -12 -22 -14 -22 -12 -21 -13 -22 -13 -22 -13 -21 -12 -21 -14 -21 -13 -22 -14 -21 -13 -21 -14 -21 -13 -21 -14 -21 -14 -21 -14 -21 -13 -20 -15 -22 -14 -20 -13 -21 -15 -20 -14 -21 -15 -20 -14 -21 -16 -20 -14 -21 -15 -20 -14 -21 -16 -19 -14 -20 -16 -21 -15 -19 -15 -20 -15 -20 -16 -20 -16 -19 -15 -21 -16 -19 -16 -19 -15 -20 -17 -19 -16 -19 -15 -20 -17 -20 -16 -19 -17 -18 -17 -19 -15 -20 -17 -19 -17 -18 -17 -19 -17 -19 -16 -18 -17 -20 -18 -18 -17 -18 -17 -19 -18 -18 -17 -18 -18 -18 -17 -18 -18 -18 -18 -18 -17 -18 -18 -18 -18 -18 -18 -18 -18 -18 -19 -17 -18 -18 -18 -17 -18 -18 -20 -17 -18 -18 -19 -17 -18 -17 -19 -17 -19 -17 -20 -16 -18 -18 -19 -16 -19 -17 -19 -17 -21 -17 -19 -16 -19 -6 -8 -5 3 -12 7 -11 8 -12 8 -11 8 -11 7 -12 7 -11 9 -11 8 -12 8 -10 8 -11 7 -11 9 -12 8 -11 8 -11 9 -11 7 -10 9 -11 8 -11 8 -12 9 -11 8 -11 9 -11 9 -10 9 -11 8 -10 8 -11 9 -10 10 -11 8 -11 10 -11 8 -11 10 -9 8 -11 10 -11 8 -11 10 -10 9 -10 9 -10 9 -11 10 -11 10 -9 8 -11 10 -10 9 -11 10 -9 10 -11 9 -10 10 -10 11 -10 9 -10 10 -11 10 -9 10 -10 10 -11 10 -9 10 -10 10 -9 11 -11 10 -10 10 -10 10 -9 11 -10 11 -9 9 -10 11 -10 11 -9 11 -10 9 -10 11 -9 11 -10 11 -9 11 -10 10 -10 11 -9 12 -9 11 -9 11 -10 11 -10 11 -8 12 -10 11 -9 12 -9 10 -9 12 -10 11 -8 12 -10 11 -8 12 -10 11 -8 12 -10 12 -8 12 -10 12 -9 11 -9 12 -9 12 -8 12 -10 12 -8 12 -8 12 -10 13 -9 12 -8 12 -8 12 -9 12 -9 14 -9 12 -8 13 -9 12 -8 12 -9 13 -8 12 -8 14 0 0 -533 -4410 3560 2655 -16 0 -14 2 -16 1 -14 1 -16 1 -15 1 -15 2 -16 1 -14 1 -16 1 -14 3 -15 1 -15 1 -15 1 -16 3 -14 1 -14 2 -15 1 -15 2 -15 2 -14 2 -15 2 -15 2 -15 2 -14 2 -15 2 -14 2 -15 3 -14 2 -14 2 -15 2 -14 2 -15 3 -14 2 -15 4 -14 2 -15 3 -13 2 -14 2 -15 4 -14 2 -15 3 -13 3 -14 3 -15 3 -13 3 -14 3 -15 3 -13 3 -14 4 -14 4 -14 2 -13 4 -15 3 -13 4 -14 4 -14 3 -14 4 -13 3 -14 4 -14 4 -13 3 -13 4 -15 3 -13 5 -13 4 -14 3 -13 5 -14 4 -14 5 -13 3 -13 5 -13 4 -13 4 -14 4 -13 5 -13 5 15 12 20 15 19 16 20 16 20 14 19 16 20 15 20 15 20 15 19 15 21 14 19 16 20 14 21 15 20 14 21 15 20 14 20 15 21 13 21 14 20 15 21 13 20 14 20 14 22 14 21 13 20 14 22 13 20 13 22 13 20 13 22 14 20 13 22 13 22 12 21 13 21 12 21 14 22 12 22 12 21 13 22 12 22 12 21 12 22 12 23 12 22 11 21 12 22 12 23 11 21 12 23 11 22 11 22 12 22 10 23 11 22 11 23 11 23 11 21 11 23 10 23 10 23 11 23 9 23 11 21 10 23 10 23 10 24 10 23 10 23 9 23 10 22 9 23 9 24 10 23 9 23 9 24 9 23 9 23 8 24 8 23 10 24 9 24 8 23 8 24 8 23 8 24 8 24 8 24 8 23 7 24 9 24 7 24 7 24 7 24 8 24 7 24 7 24 7 24 7 24 6 24 8 24 6 25 7 24 6 25 6 24 6 24 7 24 5 25 6 24 6 24 6 26 6 24 5 25 6 24 5 25 5 24 6 26 4 24 5 25 5 24 5 25 5 26 3 24 5 25 5 25 3 25 5 25 4 25 3 25 4 25 5 26 4 25 2 24 4 25 3 25 4 26 2 25 4 25 2 26 3 25 3 25 3 25 2 26 2 26 3 25 2 26 1 25 3 25 1 25 2 27 2 25 2 25 1 26 1 25 2 26 1 26 1 25 0 26 1 26 1 25 0 26 0 26 2 26 0 25 0 26 0z"/>
    <path class="fil1" d="M10234 4628l-38 0 -37 0 -38 2 -38 0 -37 1 -37 1 -38 1 -37 3 -37 1 -36 2 -38 3 -37 2 -37 4 -36 2 -38 4 -36 3 -37 4 -36 3 -37 4 -36 5 -37 3 -37 5 -36 5 -36 6 -36 5 -36 6 -36 5 -36 6 -37 6 -36 7 -36 6 -35 7 -36 7 -35 8 -36 7 -35 7 -36 9 -35 7 -34 8 -37 9 -34 8 -35 10 -35 8 -35 10 -35 9 -34 10 -35 10 -34 9 -35 11 -34 10 -35 10 -34 11 -33 11 -35 11 -34 12 -34 11 -33 12 -34 12 -34 12 -33 12 -33 13 -33 12 -34 13 -33 14 -33 13 -33 13 -32 13 -34 15 -32 13 -33 14 -32 15 -33 14 -31 15 -33 15 -32 15 -31 16 -33 15 -31 16 -33 15 -31 16 -31 17 -32 16 -31 16 -31 17 -31 17 -32 17 -30 17 -31 17 -30 18 -30 18 -31 17 -31 18 -30 19 -30 18 -30 18 -30 19 -29 18 -30 19 -29 20 -30 19 -29 19 -29 21 -30 19 -28 20 -28 21 -29 19 -29 21 -29 21 -27 21 -29 20 -28 22 -28 20 -27 22 -28 22 -28 21 -27 22 -28 23 -26 21 -28 23 -27 22 -26 23 -27 23 -26 22 -26 23 -27 24 -26 23 -26 24 -26 23 -25 24 -27 24 -25 24 -25 24 -26 24 -24 26 -25 24 -25 25 -24 24 -24 25 -26 26 -24 25 -24 26 -24 26 -23 25 -24 26 -23 26 -24 26 -23 27 -22 26 -23 27 -23 26 -23 26 -22 28 -23 27 -21 27 -22 28 -21 26 -22 28 -22 28 -21 27 -21 29 -22 28 -20 28 -20 29 -21 27 -20 29 -21 29 -20 29 -20 29 -20 29 -19 28 -19 31 -20 28 -19 29 -18 30 -19 30 -18 29 -20 30 -18 30 -18 31 -16 30 -19 31 -18 30 -16 30 -17 31 -17 30 -17 32 -17 30 -17 31 -15 31 -17 32 -16 31 -15 31 -16 31 -16 32 -14 32 -16 31 -14 33 -15 31 -14 33 -15 31 -14 33 -13 32 -13 32 -15 33 -13 32 -13 33 -12 32 -14 33 -12 32 -12 33 -12 34 -12 32 -12 33 -12 33 -11 33 -10 33 -11 33 -11 34 -11 32 -11 34 -9 33 -10 33 -10 34 -9 33 -10 34 -8 32 -9 34 -9 34 -9 32 -7 34 -8 34 -9 32 -7 34 -7 34 -7 32 -6 34 -8 32 -6 33 -7 32 -6 34 -5 32 -6 33 -5 32 -6 32 -4 32 -5 31 -4 33 -5 30 -3 31 -4 30 -3 30 -4 32 -3 28 -3 29 -3 30 -2 28 -189 -864 5 -47 4 -45 4 -46 5 -45 5 -44 5 -43 5 -45 6 -43 6 -42 6 -42 6 -43 6 -42 7 -41 6 -41 7 -40 7 -40 8 -40 7 -41 8 -39 7 -39 9 -40 8 -38 9 -39 8 -38 10 -37 8 -39 10 -38 9 -38 10 -37 10 -37 9 -38 11 -36 11 -37 10 -36 10 -36 12 -37 11 -37 11 -34 12 -37 12 -36 12 -35 12 -36 12 -35 12 -34 14 -35 12 -35 13 -35 13 -35 13 -35 15 -34 13 -34 14 -34 14 -34 14 -33 15 -34 14 -34 16 -34 14 -32 16 -34 15 -32 15 -34 17 -32 15 -33 16 -32 17 -33 15 -32 17 -33 17 -32 17 -32 17 -32 18 -31 17 -32 18 -31 17 -31 18 -31 18 -32 19 -31 18 -30 18 -31 19 -30 19 -32 20 -30 19 -30 19 -30 19 -30 20 -30 20 -29 21 -30 19 -29 20 -29 21 -30 21 -29 21 -29 20 -29 22 -28 22 -28 21 -29 22 -28 22 -28 21 -28 22 -28 23 -28 21 -27 23 -28 23 -28 23 -26 23 -28 23 -26 24 -27 23 -26 24 -27 23 -26 24 -26 24 -27 24 -25 24 -27 25 -25 24 -25 25 -25 24 -26 26 -25 25 -25 25 -24 26 -26 25 -24 26 -24 26 -24 26 -24 26 -24 26 -24 26 -23 27 -24 26 -23 28 -23 26 -22 27 -23 27 -23 28 -23 27 -23 27 -22 28 -21 28 -23 27 -22 29 -21 28 -21 29 -21 27 -22 29 -21 29 -20 29 -21 29 -20 29 -20 29 -21 28 -20 31 -20 28 -19 30 -20 29 -20 30 -18 31 -19 30 -19 30 -18 30 -19 30 -18 31 -18 30 -18 31 -19 31 -16 31 -18 31 -17 31 -17 32 -18 31 -16 31 -17 32 -16 31 -16 32 -17 32 -16 32 -15 31 -16 33 -14 32 -16 33 -16 32 -14 33 -14 32 -15 33 -14 32 -14 34 -14 32 -13 34 -15 33 -13 33 -13 34 -12 34 -13 32 -12 34 -14 35 -12 33 -12 34 -12 34 -11 33 -12 35 -10 34 -11 35 -11 35 -11 33 -11 35 -9 35 -11 35 -10 35 -10 35 -9 35 -9 35 -9 35 -9 34 -8 37 -8 34 -9 37 -8 34 -8 37 -8 34 -7 36 -7 37 -8 36 -7 36 -6 36 -6 36 -7 36 -6 36 -5 36 -6 36 -5 36 -6 38 -5 36 -4 37 -4 36 -5 38 -3 36 -5 37 -4 37 -3 36 -3 38 -3 37 -3 37 -2 37 -3 38 -2 37 -1 37 -3 38 -1 37 -1 37 -1 39 -1 37 0 37 0 39 0 26 0 27 0 26 0 27 0 27 1 27 0 26 1 27 1 26 0 27 1 26 2 28 1 26 2 27 1 26 2 27 2 26 1 27 3 26 2 27 2 25 2 26 3 27 3 26 2 27 2 26 4 27 2 25 4 26 2 27 4 26 4 26 3 26 4 27 3 25 4 26 5 26 4 26 3 25 5 27 5 25 3 26 5 26 5 26 5 25 5 27 4 25 6 25 5 27 6 25 5 25 6 26 6 25 5 26 6 26 6 25 6 25 7 26 6 25 6 25 7 25 6 26 8 25 6 25 7 24 7 25 7 26 8 25 7 24 7 25 8 26 8 24 7 25 8 25 9 24 7 26 8 24 9 24 8 25 9 24 8 25 8 24 10 24 9 24 9 24 9 26 9 24 10 24 8 24 10 24 9 24 10 24 11 24 10 24 9 24 10 23 11 24 9 24 11 23 11 24 11 24 9 23 11 24 11 23 12 24 11 23 11 23 11 24 12 23 10 23 12 24 12 23 11 22 12 23 12 23 12 23 12 23 12 23 14 23 12 21 12 23 13 23 12 23 13 21 13 23 13 22 13 23 13 21 13 23 13 22 14 23 14 21 13 22 14 22 14 21 13 23 15 22 14 22 15 21 13 22 14 20 15 22 14 22 16 21 14 21 15 21 15 21 15 22 15 20 15 22 15 20 16 22 14 20 16 21 16 20 15 21 16 20 17 21 16 20 15 20 17 21 16 20 17 21 15 19 17 20 17 21 17 19 17 19 16 21 17 19 17 21 17 19 17 19 18 19 17 20 18 19 17 19 18 19 16 20 18 19 19 19 18 18 18 19 18 18 18 20 18 18 19 19 18 18 18 18 19 19 18 18 20 18 19 18 19 19 18 18 19 16 20 18 19 18 19 19 21 16 19 18 19 17 19 18 21 17 19 17 21 17 20 18 19 17 21 17 20 16 21 17 20 16 20 17 21 17 20 16 22 16 21 17 20 16 22 15 20 12 16 6 -4 11 -7 11 -7 11 -6 11 -8 10 -7 11 -7 11 -7 11 -7 11 -6 11 -8 10 -7 10 -7 11 -9 11 -7 10 -7 11 -7 10 -7 11 -9 11 -7 10 -7 10 -9 11 -7 11 -7 9 -9 11 -7 11 -8 10 -9 10 -7 10 -8 11 -9 9 -7 11 -8 10 -9 11 -8 9 -9 10 -8 11 -8 9 -9 10 -8 11 -9 10 -8 9 -9 11 -8 10 -8 9 -10 10 -8 10 -9 10 -9 10 -9 10 -8 9 -10 10 -8 9 -10 10 -10 10 -8 9 -10 10 -9 10 -9 9 -9 10 -10 9 -10 10 -9 10 -10 8 -8 10 -10 9 -11 10 -9 10 -10 8 -10 10 -9 9 -10 10 -9 8 -11 10 -10 8 -10 10 -10 10 -10 8 -11 10 -9 8 -11 10 -10 8 -11 10 -11 8 -9 10 -11 8 -11 9 -11 9 -9 9 -11 9 -11 9 -11 8 -11 9 -10 9 -11 9 -11 8 -12 8 -11 9 -11 10 -11 8 -10 8 -12 9 -11 8 -11 9 -12 8 -11 8 -12 9 -11 8 -12 9 -12 8 -11 9 -12 8 -12 0 0 360 4157 -3258 -2606 14 0 15 0 14 -1 14 0 15 -1 14 0 14 -2 14 -1 14 0 15 -1 13 -1 15 0 14 -1 13 -2 15 -1 14 -1 13 -1 15 -1 13 -2 14 -1 14 -1 14 -1 13 -1 15 -2 13 -1 14 -2 14 -1 14 -2 13 -2 14 -1 14 -3 13 -1 14 -2 13 -1 14 -3 13 -1 14 -2 13 -3 13 -2 15 -1 13 -3 13 -2 13 -3 14 -2 13 -3 13 -2 13 -2 13 -3 14 -2 13 -3 13 -2 13 -4 14 -2 13 -2 12 -4 13 -2 13 -3 14 -3 13 -3 12 -3 13 -3 13 -3 14 -4 12 -2 13 -4 13 -4 12 -2 13 -4 12 -3 14 -4 12 -4 13 -3 12 -4 13 -3 12 -4 13 -4 12 -3 11 -4 -11 -9 -19 -18 -19 -17 -19 -17 -20 -17 -20 -17 -19 -15 -20 -17 -20 -17 -19 -16 -21 -17 -19 -15 -20 -17 -20 -16 -20 -17 -21 -15 -20 -16 -20 -16 -21 -15 -20 -16 -21 -15 -20 -15 -21 -16 -20 -15 -21 -15 -21 -15 -21 -15 -20 -15 -22 -15 -20 -14 -22 -15 -20 -14 -22 -15 -22 -14 -20 -14 -22 -15 -21 -13 -22 -15 -22 -13 -21 -14 -22 -13 -22 -15 -21 -13 -22 -13 -23 -14 -22 -13 -21 -13 -23 -13 -22 -13 -23 -13 -21 -13 -23 -12 -22 -13 -23 -12 -21 -13 -23 -12 -23 -12 -23 -12 -23 -12 -23 -12 -22 -12 -22 -12 -23 -11 -24 -12 -23 -11 -23 -12 -23 -11 -22 -12 -25 -11 -22 -11 -23 -11 -24 -10 -23 -11 -24 -11 -23 -10 -24 -10 -23 -11 -24 -10 -24 -11 -23 -9 -24 -10 -24 -10 -24 -9 -23 -10 -24 -10 -24 -9 -24 -10 -24 -9 -24 -9 -24 -9 -24 -9 -26 -9 -24 -9 -24 -8 -24 -9 -24 -8 -25 -9 -24 -8 -24 -8 -26 -8 -24 -8 -25 -7 -24 -9 -25 -7 -24 -7 -26 -9 -25 -7 -24 -7 -25 -7 -25 -7 -26 -6 -24 -8 -25 -7 -25 -6 -26 -6 -25 -7 -25 -6 -25 -6 -26 -6 -25 -6 -25 -6 -25 -6 -26 -6 -25 -5 -25 -6 -26 -5 -26 -5 -25 -6 -26 -5 -25 -4 -26 -5 -26 -5 -25 -5 -26 -3 -26 -5 -26 -5 -25 -4 -26 -4 -26 -4 -26 -4 -26 -3 -26 -4 -25 -4 -27 -3 -25 -4 -27 -2 -26 -4 -25 -2 -27 -4 -26 -2 -27 -3 -25 -2 -27 -2 -26 -3 -26 -2 -27 -3 -26 -1 -27 -2 -25 -1 -27 -3 -26 -1 -27 -1 -26 -1 -26 -2 -27 -1 -26 -1 -27 -1 -26 0 -27 -1 -27 0 -27 -2 -26 0 -27 0 -26 0z"/>
   </g>
   <g transform="matrix(0.999992 0 0 1 -992447 -663022)">
    <text x="1000000" y="676318"  class="fil2 fnt0">$</text>
   </g>
  </g>
 </g>
</svg>
