<?xml version="1.0" encoding="UTF-8"?>
<!DOCTYPE svg PUBLIC "-//W3C//DTD SVG 1.0//EN" "http://www.w3.org/TR/2001/REC-SVG-20010904/DTD/svg10.dtd">
<!-- Creator: CorelDRAW X7 -->
<svg xmlns="http://www.w3.org/2000/svg" xml:space="preserve" width="20px" height="20px" version="1.0" style="shape-rendering:geometricPrecision; text-rendering:geometricPrecision; image-rendering:optimizeQuality; fill-rule:evenodd; clip-rule:evenodd"
viewBox="0 0 32248 32248"
 xmlns:xlink="http://www.w3.org/1999/xlink">
 <defs>
  <style type="text/css">
   <![CDATA[
    .fil0 {fill:#696B6B}
    .fil1 {fill:white;fill-rule:nonzero}
   ]]>
  </style>
 </defs>
 <g id="Layer_x0020_1">
  <metadata id="CorelCorpID_0Corel-Layer"/>
  <path class="fil0" d="M7075 0l18100 0c3891,0 7073,3182 7073,7073l0 18100c0,3891 -3182,7075 -7073,7075l-18100 0c-3891,0 -7075,-3184 -7075,-7075l0 -18100c0,-3891 3184,-7073 7075,-7073z"/>
  <path class="fil1" d="M5494 20524l0 -12451 2581 0 0 5515 5203 -5515 3458 0 -4810 4849 5060 7602 -3331 0 -3504 -5846 -2076 2081 0 3765 -2581 0zm12572 574l2794 331c49,322 154,541 322,663 234,171 599,259 1098,259 638,0 1115,-93 1434,-282 216,-124 379,-324 488,-602 74,-198 114,-565 114,-1097l12 -1318c-737,983 -1663,1472 -2779,1472 -1240,0 -2224,-512 -2948,-1536 -571,-808 -857,-1817 -857,-3019 0,-1514 375,-2666 1120,-3464 744,-796 1672,-1196 2784,-1196 1141,0 2084,489 2828,1468l0 -1278 2278 0 0 8092c0,1063 -89,1861 -270,2385 -178,527 -429,941 -756,1241 -324,299 -757,536 -1299,705 -545,170 -1229,255 -2057,255 -1568,0 -2678,-264 -3333,-788 -655,-528 -983,-1192 -983,-2000 0,-80 4,-177 10,-291zm2190 -5268c0,956 189,1655 567,2097 379,444 848,666 1402,666 594,0 1097,-228 1507,-683 415,-456 619,-1128 619,-2019 0,-933 -195,-1627 -591,-2080 -392,-451 -889,-678 -1491,-678 -587,0 -1067,225 -1446,667 -378,444 -567,1120 -567,2030z"/>
 </g>
</svg>
