<?xml version="1.0" encoding="UTF-8"?>
<!DOCTYPE svg PUBLIC "-//W3C//DTD SVG 1.1//EN" "http://www.w3.org/Graphics/SVG/1.1/DTD/svg11.dtd">
<!-- Creator: CorelDRAW X7 -->
<svg xmlns="http://www.w3.org/2000/svg" xml:space="preserve" width="0.76389in" height="0.764087in" version="1.1" style="shape-rendering:geometricPrecision; text-rendering:geometricPrecision; image-rendering:optimizeQuality; fill-rule:evenodd; clip-rule:evenodd"
viewBox="0 0 2001 2001"
 xmlns:xlink="http://www.w3.org/1999/xlink">
 <defs>
  <style type="text/css">
   <![CDATA[
    .fil1 {fill:none}
    .fil0 {fill:#525A66}
   ]]>
  </style>
 </defs>
 <g id="Layer_x0020_1">
  <metadata id="CorelCorpID_0Corel-Layer"/>
  <g id="_199458479136">
   <g>
    <g>
     <rect class="fil0" width="535" height="535"/>
     <rect class="fil0" x="733" y="1" width="535" height="535"/>
     <rect class="fil0" x="1465" y="1" width="535" height="535"/>
    </g>
    <g>
     <rect class="fil0" y="733" width="535" height="535"/>
     <rect class="fil0" x="733" y="733" width="535" height="535"/>
     <rect class="fil0" x="1465" y="733" width="535" height="535"/>
    </g>
    <g>
     <rect class="fil0" y="1465" width="535" height="535"/>
     <rect class="fil0" x="733" y="1466" width="535" height="535"/>
     <rect class="fil0" x="1465" y="1466" width="535" height="535"/>
    </g>
   </g>
   <rect class="fil1" width="2001" height="2001"/>
  </g>
 </g>
</svg>
