<?xml version="1.0" encoding="UTF-8"?>
<!DOCTYPE svg PUBLIC "-//W3C//DTD SVG 1.1//EN" "http://www.w3.org/Graphics/SVG/1.1/DTD/svg11.dtd">
<!-- Creator: CorelDRAW X7 -->
<svg xmlns="http://www.w3.org/2000/svg" xml:space="preserve" width="0.770835in" height="0.583339in" version="1.1" style="shape-rendering:geometricPrecision; text-rendering:geometricPrecision; image-rendering:optimizeQuality; fill-rule:evenodd; clip-rule:evenodd"
viewBox="0 0 334 253"
 xmlns:xlink="http://www.w3.org/1999/xlink">
 <defs>
  <style type="text/css">
   <![CDATA[
    .str0 {stroke:#434C59;stroke-width:6.01964}
    .str1 {stroke:#434C59;stroke-width:3.01067}
    .fil3 {fill:none}
    .fil1 {fill:#FEFEFE}
    .fil2 {fill:#434C59}
    .fil0 {fill:#525A66}
   ]]>
  </style>
 </defs>
 <g id="Layer_x0020_1">
  <metadata id="CorelCorpID_0Corel-Layer"/>
  <g id="_199455170576">
   <g>
    <path class="fil0" d="M49 1l260 0c2,0 4,1 4,3l0 244c0,3 -2,4 -4,4l-260 0c-27,0 -49,-22 -49,-48l0 -155c0,-26 22,-48 49,-48z"/>
    <rect class="fil1" x="28" y="28" width="264.548" height="20.555"/>
    <path class="fil1 str0" d="M242 110l89 0 0 73 -89 0c-32,-14 -34,-58 0,-73z"/>
    <circle class="fil2 str1" cx="257" cy="146" r="9"/>
   </g>
   <rect class="fil3" x="2" width="331" height="253"/>
  </g>
 </g>
</svg>
