<?xml version="1.0" encoding="UTF-8"?>
<!DOCTYPE svg PUBLIC "-//W3C//DTD SVG 1.1//EN" "http://www.w3.org/Graphics/SVG/1.1/DTD/svg11.dtd">
<!-- Creator: CorelDRAW X7 -->
<svg xmlns="http://www.w3.org/2000/svg" xml:space="preserve" width="430px" height="430px" version="1.1" style="shape-rendering:geometricPrecision; text-rendering:geometricPrecision; image-rendering:optimizeQuality; fill-rule:evenodd; clip-rule:evenodd"
viewBox="0 0 1607687 1607687"
 xmlns:xlink="http://www.w3.org/1999/xlink">
 <defs>
  <style type="text/css">
   <![CDATA[
    .fil0 {fill:none}
    .fil4 {fill:#4BB85B}
    .fil1 {fill:#4285F4}
    .fil2 {fill:#EA4335}
    .fil3 {fill:#FBBC05}
   ]]>
  </style>
 </defs>
 <g id="Layer_x0020_1">
  <metadata id="CorelCorpID_0Corel-Layer"/>
  <g id="_916690575088">
   <rect class="fil0" x="-2" y="2" width="1607687" height="1607687"/>
   <g>
    <path class="fil1" d="M395259 726439l-187596 0 0 55667 133046 0c-6575,78060 -71520,111352 -132821,111352 -78431,0 -146869,-61708 -146869,-148203 0,-84260 65241,-149147 147041,-149147 63112,0 100303,40233 100303,40233l38975 -40366c0,0 -50028,-55693 -141270,-55693 -116187,0 -206068,98060 -206068,203980 0,103787 84547,204991 209031,204991 109480,0 189620,-75000 189620,-185906 0,-23400 -3396,-36921 -3396,-36921l4 13z"/>
    <path class="fil2" d="M549697 737757c37853,0 73723,30602 73723,79919 0,48266 -35720,79743 -73895,79743 -41952,0 -75053,-33601 -75053,-80127 0,-45532 32691,-79535 75225,-79535l0 0zm-764 -51631c-76978,0 -132146,60180 -132146,130367 4,71224 53507,132521 133047,132521 72005,0 130993,-55031 130993,-130993 0,-87060 -68619,-131895 -131894,-131895l0 0z"/>
    <path class="fil3" d="M837084 737757c37853,0 73724,30602 73724,79919 0,48266 -35716,79743 -73901,79743 -41951,0 -75044,-33601 -75044,-80127 0,-45532 32683,-79535 75221,-79535l0 0zm-768 -51631c-76974,0 -132142,60180 -132142,130367 0,71224 53508,132521 133051,132521 71997,0 130985,-55031 130985,-130993 0,-87060 -68610,-131895 -131894,-131895l0 0z"/>
    <path class="fil1" d="M1123314 737792c34643,0 70213,29578 70213,80092 0,51339 -35499,79636 -70976,79636 -37668,0 -72717,-30584 -72717,-79151 0,-50460 36400,-80577 73480,-80577l0 0zm-5113 -51529c-70655,0 -126189,61885 -126189,131343 0,79115 64384,131580 124970,131580 37465,0 57385,-14868 72090,-31940l0 25921c0,45347 -27533,72505 -69096,72505 -40149,0 -60290,-29851 -67290,-46795l-50518 21121c17925,37898 54003,77411 118228,77411 70248,0 123791,-44243 123791,-137043l0 -236198 -55111 0 0 22265c-16944,-18260 -40118,-30165 -70875,-30165l0 -5z"/>
    <path class="fil2" d="M1491522 736503c24013,0 41297,12771 48641,28076l-117706 49198c-5074,-38087 31008,-77274 69065,-77274l0 0zm-2297 -50553c-66644,0 -122607,53026 -122607,131271 0,82794 62374,131895 129006,131895 55614,0 89749,-30426 110120,-57685l-45440 -30236c-11791,18304 -31503,36188 -64402,36188 -36948,-4 -53940,-20238 -64468,-39836l176253 -73136 -9155 -21430c-17023,-41973 -56744,-77023 -109302,-77023l-5 -8z"/>
    <polygon class="fil4" points="1282592,941313 1340484,941313 1340484,553874 1282592,553874 "/>
   </g>
  </g>
 </g>
</svg>
