<?xml version="1.0" encoding="UTF-8"?>
<!DOCTYPE svg PUBLIC "-//W3C//DTD SVG 1.1//EN" "http://www.w3.org/Graphics/SVG/1.1/DTD/svg11.dtd">
<!-- Creator: CorelDRAW X7 -->
<svg xmlns="http://www.w3.org/2000/svg" xml:space="preserve" width="430px" height="430px" version="1.1" style="shape-rendering:geometricPrecision; text-rendering:geometricPrecision; image-rendering:optimizeQuality; fill-rule:evenodd; clip-rule:evenodd"
viewBox="0 0 1610487 1610487"
 xmlns:xlink="http://www.w3.org/1999/xlink">
 <defs>
  <style type="text/css">
   <![CDATA[
    .fil0 {fill:none}
    .fil3 {fill:#FEFEFE}
    .fil2 {fill:#373435}
    .fil1 {fill:#ED3237}
   ]]>
  </style>
     <clipPath id="id0">
      <path d="M828505 1098106l0 -1301 624099 0 0 1301 -624099 0z"/>
     </clipPath>
     <clipPath id="id1">
      <path d="M821157 1097057l0 -1300 638799 0 0 1300 -638799 0z"/>
     </clipPath>
     <clipPath id="id2">
      <path d="M814854 1096005l0 -1297 651406 0 0 1297 -651406 0z"/>
     </clipPath>
     <clipPath id="id3">
      <path d="M810651 1094956l0 -1300 659807 0 0 1300 -659807 0z"/>
     </clipPath>
     <clipPath id="id4">
      <path d="M806453 1093903l0 -1300 668207 0 0 1300 -668207 0z"/>
     </clipPath>
     <clipPath id="id5">
      <path d="M802251 1092851l0 -1297 676612 0 0 1297 -676612 0z"/>
     </clipPath>
     <clipPath id="id6">
      <path d="M799101 1091802l0 -1300 682911 0 0 1300 -682911 0z"/>
     </clipPath>
     <clipPath id="id7">
      <path d="M795947 1090749l0 -1300 689215 0 0 1300 -689215 0z"/>
     </clipPath>
     <clipPath id="id8">
      <path d="M792798 1089697l0 -1297 695514 0 0 1297 -695514 0z"/>
     </clipPath>
     <clipPath id="id9">
      <path d="M789648 1088648l0 -1300 701818 0 0 1300 -701818 0z"/>
     </clipPath>
     <clipPath id="id10">
      <path d="M787547 1087595l0 -1300 706020 0 0 1300 -706020 0z"/>
     </clipPath>
     <clipPath id="id11">
      <path d="M785446 1086543l0 -1297 710218 0 0 1297 -710218 0z"/>
     </clipPath>
     <clipPath id="id12">
      <path d="M783344 1085494l0 -1300 714421 0 0 1300 -714421 0z"/>
     </clipPath>
     <clipPath id="id13">
      <path d="M780195 1084441l0 -1300 720719 0 0 1300 -720719 0z"/>
     </clipPath>
     <clipPath id="id14">
      <path d="M778094 1083388l0 -1296 724922 0 0 1296 -724922 0z"/>
     </clipPath>
     <clipPath id="id15">
      <path d="M775992 1082340l0 -1300 729125 0 0 1300 -729125 0z"/>
     </clipPath>
     <clipPath id="id16">
      <path d="M773896 1081292l0 -1301 733322 0 0 1301 -733322 0z"/>
     </clipPath>
     <clipPath id="id17">
      <path d="M772843 1080239l0 -1301 735423 0 0 1301 -735423 0z"/>
     </clipPath>
     <clipPath id="id18">
      <path d="M770742 1079186l0 -1300 739626 0 0 1300 -739626 0z"/>
     </clipPath>
     <clipPath id="id19">
      <path d="M768640 1078138l0 -1301 743829 0 0 1301 -743829 0z"/>
     </clipPath>
     <clipPath id="id20">
      <path d="M767592 1077085l0 -1296 745925 0 0 1296 -745925 0z"/>
     </clipPath>
     <clipPath id="id21">
      <path d="M765491 1076032l0 -1296 750127 0 0 1296 -750127 0z"/>
     </clipPath>
     <clipPath id="id22">
      <path d="M763390 1074984l0 -1301 716521 0 0 1301 -716521 0z"/>
     </clipPath>
     <clipPath id="id23">
      <path d="M762341 1073931l0 -1296 676608 0 0 1296 -676608 0z"/>
     </clipPath>
     <clipPath id="id24">
      <path d="M761293 1072878l0 -1296 636698 0 0 1296 -636698 0z"/>
     </clipPath>
     <clipPath id="id25">
      <path d="M759192 1071830l0 -1301 597840 0 0 1301 -597840 0z"/>
     </clipPath>
     <clipPath id="id26">
      <path d="M758139 1070777l0 -1296 557931 0 0 1296 -557931 0z"/>
     </clipPath>
     <clipPath id="id27">
      <path d="M756038 1069728l0 -1300 519074 0 0 1300 -519074 0z"/>
     </clipPath>
     <clipPath id="id28">
      <path d="M754989 1068676l0 -1301 479165 0 0 1301 -479165 0z"/>
     </clipPath>
     <clipPath id="id29">
      <path d="M753936 1067623l0 -1296 439255 0 0 1296 -439255 0z"/>
     </clipPath>
     <clipPath id="id30">
      <path d="M751840 1066574l0 -1300 400393 0 0 1300 -400393 0z"/>
     </clipPath>
     <clipPath id="id31">
      <path d="M750787 1065522l0 -1297 360483 0 0 1297 -360483 0z"/>
     </clipPath>
     <clipPath id="id32">
      <path d="M749738 1064469l0 -1296 320574 0 0 1296 -320574 0z"/>
     </clipPath>
     <clipPath id="id33">
      <path d="M748686 1063420l0 -1300 280668 0 0 1300 -280668 0z"/>
     </clipPath>
     <clipPath id="id34">
      <path d="M747637 1062368l0 -1301 240759 0 0 1301 -240759 0z"/>
     </clipPath>
     <clipPath id="id35">
      <path d="M746584 1061319l0 -1300 200850 0 0 1300 -200850 0z"/>
     </clipPath>
     <clipPath id="id36">
      <path d="M744483 1060266l0 -1300 161988 0 0 1300 -161988 0z"/>
     </clipPath>
     <clipPath id="id37">
      <path d="M743435 1059218l0 -1301 122078 0 0 1301 -122078 0z"/>
     </clipPath>
     <clipPath id="id38">
      <path d="M742386 1058165l0 -1300 82169 0 0 1300 -82169 0z"/>
     </clipPath>
     <clipPath id="id39">
      <path d="M741334 1057112l0 -1300 42263 0 0 1300 -42263 0z"/>
     </clipPath>
     <clipPath id="id40">
      <rect x="740422" y="1054772" width="2207" height="1261"/>
     </clipPath>
 </defs>
 <g id="Layer_x0020_1">
  <metadata id="CorelCorpID_0Corel-Layer"/>
  <g id="_916666109888">
   <rect class="fil0" x="-2" y="2" width="1610487" height="1610487"/>
   <g>
    <path class="fil1" d="M830677 498142l619769 0c82871,0 150672,64376 150672,143063l0 328077c0,78691 -67801,143068 -150672,143068l-619769 0c-82872,0 -150672,-64377 -150672,-143064l0 -328081c0,-78687 67800,-143063 150672,-143063z"/>
    <path class="fil2" d="M578200 708502l0 291108 -67973 0 1137 -24109c-4618,9807 -10325,17151 -17102,22008 -6777,4945 -14576,7347 -23383,7347 -10037,0 -18389,-2327 -24993,-6976 -6609,-4702 -11466,-10917 -14634,-18636 -3154,-7781 -5073,-15872 -5865,-24259 -788,-8454 -1186,-25153 -1186,-50164l0 -196319 55915 0 0 226576c0,12263 10023,22287 22281,22287l0 0c12258,0 22286,-10024 22286,-22287l0 -226576 53517 0z"/>
    <path class="fil2" d="M385720 808294l0 73630c0,26993 -1061,46873 -3136,59480 -2070,12607 -6512,24365 -13381,35349 -6804,10904 -15567,19026 -26228,24206 -10710,5260 -23025,7812 -36880,7812 -15513,0 -28598,-2167 -39370,-6653 -10775,-4485 -19123,-11214 -25042,-20185 -5980,-8975 -10245,-19879 -12788,-32642 -2544,-12762 -3791,-31863 -3791,-57387l0 -77112c0,-27922 2309,-49735 6927,-65438 4618,-15700 12966,-28307 24989,-37818 12015,-9519 27409,-14310 46116,-14310 15744,0 29245,3092 40494,9205 11311,6109 20012,14076 26108,23897 6157,9824 10302,19954 12612,30319 2251,10444 3370,26298 3370,47647z"/>
    <polygon class="fil2" points="230191,594178 154379,785463 154269,1008718 90113,1008718 90034,785570 9365,593806 78793,593798 119720,736264 160010,594178 "/>
    <g style="clip-path:url(#id0)">
     <image x="828531" y="1096700" width="624156" height="1261" xlink:href="Youtube_SVG_430x430_Images\Youtube_SVG_430x430_ImgID1.png"/>
    </g>
    <g style="clip-path:url(#id1)">
     <image x="821281" y="1095754" width="638657" height="1261" xlink:href="Youtube_SVG_430x430_Images\Youtube_SVG_430x430_ImgID2.png"/>
    </g>
    <g style="clip-path:url(#id2)">
     <image x="814976" y="1094809" width="651266" height="1261" xlink:href="Youtube_SVG_430x430_Images\Youtube_SVG_430x430_ImgID3.png"/>
    </g>
    <g style="clip-path:url(#id3)">
     <image x="810563" y="1093548" width="659777" height="1261" xlink:href="Youtube_SVG_430x430_Images\Youtube_SVG_430x430_ImgID4.png"/>
    </g>
    <g style="clip-path:url(#id4)">
     <image x="806465" y="1092602" width="668289" height="1261" xlink:href="Youtube_SVG_430x430_Images\Youtube_SVG_430x430_ImgID5.png"/>
    </g>
    <g style="clip-path:url(#id5)">
     <image x="802367" y="1091656" width="676485" height="1261" xlink:href="Youtube_SVG_430x430_Images\Youtube_SVG_430x430_ImgID6.png"/>
    </g>
    <g style="clip-path:url(#id6)">
     <image x="799216" y="1090395" width="682788" height="1261" xlink:href="Youtube_SVG_430x430_Images\Youtube_SVG_430x430_ImgID7.png"/>
    </g>
    <g style="clip-path:url(#id7)">
     <image x="796062" y="1089450" width="689094" height="1261" xlink:href="Youtube_SVG_430x430_Images\Youtube_SVG_430x430_ImgID8.png"/>
    </g>
    <g style="clip-path:url(#id8)">
     <image x="792911" y="1088504" width="695397" height="1261" xlink:href="Youtube_SVG_430x430_Images\Youtube_SVG_430x430_ImgID9.png"/>
    </g>
    <g style="clip-path:url(#id9)">
     <image x="789758" y="1087243" width="701703" height="1261" xlink:href="Youtube_SVG_430x430_Images\Youtube_SVG_430x430_ImgID10.png"/>
    </g>
    <g style="clip-path:url(#id10)">
     <image x="787551" y="1086297" width="706116" height="1261" xlink:href="Youtube_SVG_430x430_Images\Youtube_SVG_430x430_ImgID11.png"/>
    </g>
    <g style="clip-path:url(#id11)">
     <image x="785345" y="1085352" width="710214" height="1261" xlink:href="Youtube_SVG_430x430_Images\Youtube_SVG_430x430_ImgID12.png"/>
    </g>
    <g style="clip-path:url(#id12)">
     <image x="783453" y="1084091" width="714312" height="1261" xlink:href="Youtube_SVG_430x430_Images\Youtube_SVG_430x430_ImgID13.png"/>
    </g>
    <g style="clip-path:url(#id13)">
     <image x="780302" y="1083145" width="720616" height="1261" xlink:href="Youtube_SVG_430x430_Images\Youtube_SVG_430x430_ImgID14.png"/>
    </g>
    <g style="clip-path:url(#id14)">
     <image x="778094" y="1082199" width="725030" height="1261" xlink:href="Youtube_SVG_430x430_Images\Youtube_SVG_430x430_ImgID15.png"/>
    </g>
    <g style="clip-path:url(#id15)">
     <image x="775888" y="1080939" width="729128" height="1261" xlink:href="Youtube_SVG_430x430_Images\Youtube_SVG_430x430_ImgID16.png"/>
    </g>
    <g style="clip-path:url(#id16)">
     <image x="773998" y="1079993" width="733225" height="1261" xlink:href="Youtube_SVG_430x430_Images\Youtube_SVG_430x430_ImgID17.png"/>
    </g>
    <g style="clip-path:url(#id17)">
     <image x="772735" y="1079047" width="735433" height="1261" xlink:href="Youtube_SVG_430x430_Images\Youtube_SVG_430x430_ImgID18.png"/>
    </g>
    <g style="clip-path:url(#id18)">
     <image x="770844" y="1077786" width="739531" height="1261" xlink:href="Youtube_SVG_430x430_Images\Youtube_SVG_430x430_ImgID19.png"/>
    </g>
    <g style="clip-path:url(#id19)">
     <image x="768637" y="1076840" width="743944" height="1261" xlink:href="Youtube_SVG_430x430_Images\Youtube_SVG_430x430_ImgID20.png"/>
    </g>
    <g style="clip-path:url(#id20)">
     <image x="767693" y="1075895" width="745834" height="1261" xlink:href="Youtube_SVG_430x430_Images\Youtube_SVG_430x430_ImgID21.png"/>
    </g>
    <g style="clip-path:url(#id21)">
     <image x="765485" y="1074634" width="750249" height="1261" xlink:href="Youtube_SVG_430x430_Images\Youtube_SVG_430x430_ImgID22.png"/>
    </g>
    <g style="clip-path:url(#id22)">
     <image x="763278" y="1073688" width="716519" height="1261" xlink:href="Youtube_SVG_430x430_Images\Youtube_SVG_430x430_ImgID23.png"/>
    </g>
    <g style="clip-path:url(#id23)">
     <image x="762333" y="1072742" width="676485" height="1261" xlink:href="Youtube_SVG_430x430_Images\Youtube_SVG_430x430_ImgID24.png"/>
    </g>
    <g style="clip-path:url(#id24)">
     <image x="761229" y="1071482" width="636766" height="1261" xlink:href="Youtube_SVG_430x430_Images\Youtube_SVG_430x430_ImgID25.png"/>
    </g>
    <g style="clip-path:url(#id25)">
     <image x="759180" y="1070531" width="597992" height="1261" xlink:href="Youtube_SVG_430x430_Images\Youtube_SVG_430x430_ImgID26.png"/>
    </g>
    <g style="clip-path:url(#id26)">
     <image x="758235" y="1069590" width="557958" height="1261" xlink:href="Youtube_SVG_430x430_Images\Youtube_SVG_430x430_ImgID27.png"/>
    </g>
    <g style="clip-path:url(#id27)">
     <image x="756029" y="1068329" width="519183" height="1261" xlink:href="Youtube_SVG_430x430_Images\Youtube_SVG_430x430_ImgID28.png"/>
    </g>
    <g style="clip-path:url(#id28)">
     <image x="755082" y="1067384" width="479150" height="1261" xlink:href="Youtube_SVG_430x430_Images\Youtube_SVG_430x430_ImgID29.png"/>
    </g>
    <g style="clip-path:url(#id29)">
     <image x="753979" y="1066438" width="439116" height="1261" xlink:href="Youtube_SVG_430x430_Images\Youtube_SVG_430x430_ImgID30.png"/>
    </g>
    <g style="clip-path:url(#id30)">
     <image x="751930" y="1065177" width="400343" height="1261" xlink:href="Youtube_SVG_430x430_Images\Youtube_SVG_430x430_ImgID31.png"/>
    </g>
    <g style="clip-path:url(#id31)">
     <image x="750669" y="1064231" width="360624" height="1261" xlink:href="Youtube_SVG_430x430_Images\Youtube_SVG_430x430_ImgID32.png"/>
    </g>
    <g style="clip-path:url(#id32)">
     <image x="749724" y="1063281" width="320589" height="1261" xlink:href="Youtube_SVG_430x430_Images\Youtube_SVG_430x430_ImgID33.png"/>
    </g>
    <g style="clip-path:url(#id33)">
     <image x="748778" y="1062025" width="280555" height="1261" xlink:href="Youtube_SVG_430x430_Images\Youtube_SVG_430x430_ImgID34.png"/>
    </g>
    <g style="clip-path:url(#id34)">
     <image x="747517" y="1061079" width="240836" height="1261" xlink:href="Youtube_SVG_430x430_Images\Youtube_SVG_430x430_ImgID35.png"/>
    </g>
    <g style="clip-path:url(#id35)">
     <image x="746571" y="1060133" width="200802" height="1261" xlink:href="Youtube_SVG_430x430_Images\Youtube_SVG_430x430_ImgID36.png"/>
    </g>
    <g style="clip-path:url(#id36)">
     <image x="744365" y="1058872" width="162028" height="1261" xlink:href="Youtube_SVG_430x430_Images\Youtube_SVG_430x430_ImgID37.png"/>
    </g>
    <g style="clip-path:url(#id37)">
     <image x="743419" y="1057927" width="121994" height="1261" xlink:href="Youtube_SVG_430x430_Images\Youtube_SVG_430x430_ImgID38.png"/>
    </g>
    <g style="clip-path:url(#id38)">
     <image x="742316" y="1056981" width="82275" height="1261" xlink:href="Youtube_SVG_430x430_Images\Youtube_SVG_430x430_ImgID39.png"/>
    </g>
    <g style="clip-path:url(#id39)">
     <image x="741212" y="1055720" width="42241" height="1261" xlink:href="Youtube_SVG_430x430_Images\Youtube_SVG_430x430_ImgID40.png"/>
    </g>
    <g style="clip-path:url(#id40)">
     <image x="740424" y="1054774" width="2207" height="1261" xlink:href="Youtube_SVG_430x430_Images\Youtube_SVG_430x430_ImgID41.png"/>
    </g>
    <path class="fil3" d="M1507594 864588l-109926 0 0 38287 0 29638 0 2995c0,14420 11793,26214 26214,26214l9387 0c14421,0 26214,-11794 26214,-26214l0 -26993c62,-2385 93,-4570 155,-6485l48000 -279c21946,130934 -161824,152477 -161824,230l0 -91591c0,-27457 2716,-49110 8157,-64929 5459,-15837 14775,-27604 26927,-36424 38750,-28139 115566,-19411 123449,35628 2495,17393 3243,47810 3243,78249l4 41674z"/>
    <path class="fil3" d="M1204675 608090l-270 114178c59104,-47359 102654,-12267 102707,46262l128 153561c62,74453 -42134,116995 -109462,54874l-4764 24591 -52623 770 336 -394161 63948 -75z"/>
    <path class="fil3" d="M1102308 710784l-4 294010 -51394 -53 80 -38136c-13802,29904 -69044,53884 -97854,33018 -15439,-11178 -14921,-30770 -16443,-47531 -858,-9476 -172,-30386 -203,-58418l-226 -182885 63717 0 239 185795c36,25383 -1349,40149 239,45041 9082,27953 32514,12771 37711,-1521 1721,-4738 111,-18084 111,-44772l-4 -184548 64031 0z"/>
    <polygon class="fil3" points="948792,608165 948778,659351 871993,659302 872024,1004892 807962,1004892 807975,658347 744036,658183 744058,607820 "/>
    <path class="fil1" d="M1231632 737680l0 0c15403,0 28006,10413 28006,23144l0 172432c0,12731 -12603,23149 -28010,23149l4 -5c-15407,0 -28010,-10413 -28010,-23144l0 -172432c0,-12731 12603,-23144 28010,-23144z"/>
    <path class="fil1" d="M1427363 749553l3862 0c15748,0 28634,12890 28634,28638l-686 35477 -60705 0 252 -35477c0,-15752 12886,-28638 28643,-28638z"/>
    <path class="fil3" d="M305414 745567l0 0c14846,0 26993,13470 26993,29934l0 154995c0,16464 -12147,29930 -26993,29930l0 0c-14850,0 -26993,-13466 -26993,-29930l0 -154995c0,-16469 12143,-29934 26993,-29934z"/>
   </g>
  </g>
 </g>
</svg>
