<?xml version="1.0" encoding="UTF-8"?>
<!DOCTYPE svg PUBLIC "-//W3C//DTD SVG 1.0//EN" "http://www.w3.org/TR/2001/REC-SVG-20010904/DTD/svg10.dtd">
<!-- Creator: CorelDRAW X7 -->
<svg xmlns="http://www.w3.org/2000/svg" xml:space="preserve" width="20px" height="20px" version="1.0" style="shape-rendering:geometricPrecision; text-rendering:geometricPrecision; image-rendering:optimizeQuality; fill-rule:evenodd; clip-rule:evenodd"
viewBox="0 0 20918 20919"
 xmlns:xlink="http://www.w3.org/1999/xlink">
 <defs>
  <style type="text/css">
   <![CDATA[
    .fil0 {fill:#009EEB}
    .fil2 {fill:white}
    .fil1 {fill:white;fill-rule:nonzero}
   ]]>
  </style>
 </defs>
 <g id="Layer_x0020_1">
  <metadata id="CorelCorpID_0Corel-Layer"/>
  <path class="fil0" d="M4589 0l11741 0c2524,0 4588,2065 4588,4589l0 11741c0,2524 -2064,4589 -4588,4589l-11741 0c-2524,0 -4589,-2065 -4589,-4589l0 -11741c0,-2524 2065,-4589 4589,-4589z"/>
  <g id="_1869815897088">
   <path class="fil1" d="M13119 12687c-436,304 -901,358 -1107,385 -101,14 -275,28 -462,39l0 1173 -722 0 0 -1155c-135,0 -329,0 -551,0l0 1155 -722 0 0 -1155c-715,0 -1422,0 -1422,0l150 -867c0,0 287,0 431,0 146,0 206,-14 267,-70 60,-58 74,-146 74,-217 0,-71 0,-2801 0,-2989 0,-187 -15,-237 -101,-334 -85,-96 -288,-108 -403,-108 -114,0 -418,0 -418,0l0 -751c0,0 685,0 1422,0l0 -1158 722 0 0 1158c201,0 389,0 551,0l0 -1158 721 0 0 1172c539,34 940,136 1290,394 452,335 429,915 419,1054 -10,139 -71,404 -193,577 -121,172 -419,344 -419,344 0,0 352,75 598,260 246,185 429,513 419,992 -10,479 -109,955 -544,1259zm-1231 -1781c-136,-68 -436,-160 -793,-183 -359,-24 -818,0 -818,0l0 1549c0,0 479,11 800,-14 321,-23 651,-103 817,-195 165,-91 364,-233 364,-588 0,-353 -236,-503 -370,-569zm-433 -2212c-296,-91 -496,-97 -722,-101 -226,-4 -456,17 -456,17l0 1394c0,0 338,10 601,0 264,-10 544,-71 745,-182 203,-112 318,-288 312,-551 -8,-263 -183,-485 -480,-577z"/>
   <path class="fil2" d="M10502 3631c1688,0 3233,614 4425,1628 -234,120 -435,291 -590,500 -1045,-855 -2380,-1367 -3835,-1367 -3352,0 -6068,2716 -6068,6068 0,688 115,1349 326,1965 -255,75 -483,210 -671,387 -269,-734 -416,-1526 -416,-2352 0,-3772 3057,-6829 6829,-6829zm6349 4313c309,779 478,1627 478,2516 0,3771 -3056,6829 -6827,6829 -1753,0 -3351,-661 -4560,-1746 237,-111 445,-277 607,-480 1061,912 2442,1465 3953,1465 3350,0 6068,-2717 6068,-6068 0,-745 -135,-1458 -381,-2117 252,-80 478,-218 662,-399z"/>
   <path class="fil2" d="M15684 5078c923,0 1671,749 1671,1672 0,923 -748,1671 -1671,1671 -923,0 -1672,-748 -1672,-1671 0,-923 749,-1672 1672,-1672zm0 752c508,0 919,412 919,920 0,508 -411,920 -919,920 -509,0 -920,-412 -920,-920 0,-508 411,-920 920,-920z"/>
   <path class="fil2" d="M5235 12356c923,0 1672,748 1672,1671 0,923 -749,1672 -1672,1672 -922,0 -1671,-749 -1671,-1672 0,-923 749,-1671 1671,-1671zm0 751c508,0 921,413 921,920 0,509 -413,921 -921,921 -507,0 -920,-412 -920,-921 0,-507 413,-920 920,-920z"/>
  </g>
 </g>
</svg>
